<?xml version="1.0" encoding="utf-8"?>
<!DOCTYPE svg PUBLIC "-//W3C//DTD SVG 1.1//EN" "http://www.w3.org/Graphics/SVG/1.1/DTD/svg11.dtd">
<svg version="1.1" id="Layer_1" xmlns="http://www.w3.org/2000/svg" xmlns:xlink="http://www.w3.org/1999/xlink" viewBox="301 -72.9 112.2 130.4">
	<path d="M322.8-72.9h54.7c11.9,0,20.8,3.1,26.8,9.4c5.9,6.3,8.9,15.2,8.9,26.8c0,11.9-3.2,21.2-9.7,27.9C397-2,387.1,1.3,373.9,1.3
		h-21.4v56.2h-29.7V-72.9z M352.5-22.6h11.4c6.3,0,10.8-1.2,13.4-3.7c2.6-2.4,3.9-5.6,3.9-9.4c0-3.7-1.1-6.8-3.3-9.4
		c-2.2-2.6-6.4-3.9-12.6-3.9h-12.7V-22.6z"/>
<rect x="301" y="17.5" width="104.5" height="18"/>
<rect x="301" y="-16.5" width="74.5" height="18"/>
</svg>
